…
    ## Parsed with column specification:
    ## cols(
    ##   subject = col_integer(),
    ##   type = col_character(),
    ##   result = col_integer()
    ## )

``` r
test3sam
```

    ## # A tibble: 32 x 3
    ##    subject   type result
    ##      <int>  <chr>  <int>
    ##  1       1    low     13
    ##  2       2    low     12
    ##  3       3    low     19
    ##  4       4    low     16
    ##  5       5    low     14
    ##  6       6    low     16
    ##  7       7    low     12
    ##  8       8    low     12
    ##  9       9 middle     23
    ## 10      10 middle     23
    ## # ... with 22 more rows
…
